<?xml version="1.0" standalone="no"?>
<!DOCTYPE svg PUBLIC "-//W3C//DTD SVG 1.1//EN" "http://www.w3.org/Graphics/SVG/1.1/DTD/svg11.dtd" >
<svg xmlns="http://www.w3.org/2000/svg">
<metadata>Generated by IcoMoon</metadata>
<defs>
<font id="icomoon" horiz-adv-x="1024">
<font-face units-per-em="1024" ascent="960" descent="-64" />
<missing-glyph horiz-adv-x="1024" />
<glyph unicode="&#x20;" horiz-adv-x="512" d="" />
<glyph unicode="&#xe900;" glyph-name="car" d="M960.53 569.15c-0.69 0.794-1.275 1.567-2.090 2.341l-35.883 34.629c29.76 6.75 61.798 31.683 61.798 57.263 0 29.802-41.359 40.377-76.657 40.377-36.907 0-41.192-25.288-41.63-43.156l-92.582 89.259c-18.809 18.621-54.483 33.271-81.15 33.271h-360.713c-26.646 0-62.299-14.65-81.129-33.271l-92.561-89.259c-0.481 17.868-4.765 43.156-41.63 43.156-35.34 0-76.678-10.575-76.678-40.377 0-25.58 32.059-50.512 61.819-57.263l-35.883-34.629c-0.815-0.773-1.379-1.547-2.090-2.341-38.391-32.811-63.47-93.668-63.47-137.828v-131.224c0-31.85 12.56-60.753 32.853-82.3v-50.889c0-29.76 24.911-54.023 55.549-54.023h67.169c30.638 0 55.528 24.222 55.528 54.023v13.020h601.781v-13.020c0-29.802 24.87-54.023 55.549-54.023h67.148c30.659 0 55.528 24.264 55.528 54.023v50.889c20.314 21.547 32.853 50.45 32.853 82.3v131.224c0.042 44.159-25.037 105.017-63.428 137.828zM284.496 710.196c13.020 10.846 35.779 19.081 47.127 19.081h360.755c11.348 0 34.107-8.234 47.127-19.081l121.401-117.66h-697.79l121.38 117.66zM41.651 451.177c0 32.31 25.288 58.538 56.51 58.538 31.202 0 133.167-59.854 133.167-92.164s-101.965-24.828-133.167-24.828c-31.223 0-56.51 26.124-56.51 58.454zM211.12 237.465h-21.526l-63.846-0.104c-17.722 5.517-30.22 11.954-39.060 18.872-4.472 3.49-7.9 7.126-10.575 10.742-2.696 3.657-4.66 7.252-5.935 10.846-7.942 22.445 8.464 43.072 8.464 43.072h108.966l72.644-83.386-49.133-0.042zM668.678 237.424h-313.357c-32.665 0-59.185 26.521-59.185 59.165h431.728c0-32.686-26.521-59.165-59.185-59.165zM682.43 336.965h-340.86c-35.528 0-64.368 43.804-64.368 97.827h469.596c0-54.044-28.84-97.827-64.368-97.827zM953.843 277.779c-1.296-3.595-3.26-7.189-5.956-10.826-2.654-3.615-6.082-7.252-10.575-10.742-8.819-6.918-21.338-13.396-39.060-18.872l-134.547 0.104 72.686 83.386h108.946c0 0.021 16.426-20.564 8.506-43.052zM925.838 392.723c-31.181 0-133.146-7.44-133.146 24.828s101.965 92.164 133.146 92.164c31.223 0 56.51-26.228 56.51-58.538 0-32.289-25.288-58.454-56.51-58.454z" />
<glyph unicode="&#xe901;" glyph-name="food" d="M974.452 398.452v214.71c0 27.318-22.231 49.548-49.548 49.548h-33.032c-12.734 0-24.246-4.971-33.032-12.883-8.787 7.928-20.298 12.883-33.032 12.883h-33.032c-12.734 0-24.246-4.971-33.032-12.883-8.787 7.928-20.298 12.883-33.032 12.883h-33.032c-27.318 0-49.548-22.231-49.548-49.548v-211.935c-38.103 26.409-93.713 48.888-175.137 58.401l26.013 182.107c0.314 2.197 0.479 4.426 0.479 6.656 0 26.112-21.24 47.352-47.352 47.352h-150.842v148.645c0 9.1 7.416 16.516 16.516 16.516h132.129c27.318 0 49.548 22.231 49.548 49.548s-22.231 49.548-49.548 49.548h-148.645c-54.652 0-99.097-44.445-99.097-99.097v-165.161h-150.842c-26.112 0-47.352-21.24-47.352-47.352 0-2.23 0.165-4.459 0.479-6.706l39.804-278.594c-39.259-46.757-40.283-92.87-40.283-96.768 0-28.804 18.63-53.083 44.379-62.117-7.151-10.554-11.347-23.288-11.347-36.98 0-17.606 7.019-33.511 18.283-45.37-30.555-16.896-51.316-49.433-51.316-86.759 0-54.652 44.445-99.097 99.097-99.097h924.903v412.903c0 27.318-22.231 49.548-49.548 49.548zM875.355 613.161c0 9.1 7.416 16.516 16.516 16.516h33.032c9.1 0 16.516-7.416 16.516-16.516v-214.71h-66.065v214.71zM776.258 613.161c0 9.1 7.416 16.516 16.516 16.516h33.032c9.1 0 16.516-7.416 16.516-16.516v-214.71h-66.065v214.71zM677.161 613.161c0 9.1 7.416 16.516 16.516 16.516h33.032c9.1 0 16.516-7.416 16.516-16.516v-214.71h-66.065v214.71zM412.903 926.968h33.032c9.1 0 16.516-7.416 16.516-16.516s-7.416-16.516-16.516-16.516h-33.032v33.032zM346.839 926.968h33.032v-33.032h-33.032v33.032zM231.226 860.903c0 36.435 29.63 66.065 66.065 66.065h16.516v-33.032c-27.318 0-49.548-22.231-49.548-49.548v-148.645h-33.032v165.161zM35.559 629.677l-2.378 16.632c-0.099 0.694-0.149 1.387-0.149 2.081 0 7.895 6.425 14.319 14.319 14.319h400.78c7.895 0 14.319-6.425 14.319-14.319 0-0.694-0.050-1.387-0.132-2.031l-2.395-16.681h-47.021v-33.032h42.298l-9.431-66.065h-396.057l-9.431 66.065h339.588v33.032h-344.312zM441.063 497.548l-4.988-34.948c-17.689 1.222-36.319 1.916-56.204 1.916h-33.032c-143.922 0-227.989-33.511-277.256-72.985l-15.145 106.017h386.626zM33.032 266.323c0 1.652 3.584 165.161 313.806 165.161h33.032c308.075 0 313.724-158.522 313.806-165.161 0-18.217-14.815-33.032-33.032-33.032h-594.581c-18.217 0-33.032 14.815-33.032 33.032zM99.097 134.194c-18.217 0-33.032 14.815-33.032 33.032s14.815 33.032 33.032 33.032h528.516c18.217 0 33.032-14.815 33.032-33.032s-14.815-33.032-33.032-33.032h-528.516zM558.675 101.161l-67.766-79.063-180.736 79.063h248.502zM627.613-30.968h-528.516c-36.435 0-66.065 29.63-66.065 66.065s29.63 66.065 66.065 66.065h128.677l272.285-119.131 102.119 119.131h25.435c36.435 0 66.065-29.63 66.065-66.065s-29.63-66.065-66.065-66.065zM675.411 121.856c11.247 11.859 18.267 27.764 18.267 45.37 0 12.090-3.501 23.271-9.183 33.032h240.409v-165.161h-198.194c0 11.594-2.114 22.677-5.781 33.032h104.877v33.032h-124.532c-7.399 8.242-16.103 15.294-25.864 20.695zM990.968 299.355h-33.032v-33.032h33.032v-297.29h-289.693c8.572 9.546 15.294 20.711 19.654 33.032h237.006v231.226h-240.409c5.682 9.761 9.183 20.942 9.183 33.032h198.194v33.032h-203.793c-5.368 18.366-15.971 42.199-36.649 66.065h289.99c9.1 0 16.516-7.399 16.516-16.516v-49.548zM858.839 101.161h33.032v-33.032h-33.032v33.032zM214.71 398.452h33.032v-33.032h-33.032v33.032zM280.774 365.419h33.032v-33.032h-33.032v33.032zM346.839 398.452h33.032v-33.032h-33.032v33.032zM445.935 348.903h33.032v-33.032h-33.032v33.032zM528.516 398.452h33.032v-33.032h-33.032v33.032zM115.613 332.387h33.032v-33.032h-33.032v33.032z" />
<glyph unicode="&#xe902;" glyph-name="keys" d="M405.77 230.844l102.75-50.206-29.886-61.187-54.873 26.817c-7.359 3.586-16.225 0.548-19.817-6.805s-0.552-16.224 6.805-19.8l54.892-26.817-24.649-50.44-54.875 26.795c-7.346 3.597-16.225 0.537-19.806-6.805-3.592-7.352-0.548-16.224 6.805-19.81l54.869-26.817-16.201-33.154-102.75 50.194 96.734 198.036zM807.313 708.942v-195.452c0-17.22-13.957-31.192-31.186-31.192h-76.159v-61.624l-32.249-32.237c-12.17-12.18-12.17-31.937 0-44.115l32.249-32.237v-14.067l-27.054-27.063c-12.169-12.169-12.169-31.912 0-44.090l27.054-27.040v-26.562l-32.249-32.237c-12.17-12.178-12.17-31.935 0-44.113l32.249-32.237v-56.953l-55.089-71.724h-3.664l-55.089 71.724v474.575h-76.148c-17.225 0-31.192 13.955-31.192 31.192v53.947c-20.074 3.435-39.064 10.295-56.455 20.001 4.235-18.592 17.687-37.886 37.735-53.455v-24.369c0-27.521 22.392-49.901 49.898-49.901h57.438v-25.795c-24.504-9.184-51.304-12.157-77.802-7.789l-191.276-391.554c-7.564-15.477-26.235-21.9-41.718-14.335l-22.415 10.961c-15.481 7.543-21.889 26.237-14.331 41.712l191.278 391.547c-44.359 40.997-60.869 105.759-39.258 164.071-30.672 35.226-49.449 82.278-49.449 133.923 0 108.93 83.479 197.548 186.089 197.548 102.614 0 186.092-88.619 186.092-197.548 0-7.547-0.446-14.978-1.217-22.309h82.73c17.22-0.021 31.188-13.995 31.188-31.201zM509.979 740.122h152.008c0.915 7.297 1.429 14.732 1.429 22.309 0 91.731-69.478 166.357-154.906 166.357-85.413 0-154.897-74.624-154.897-166.357 0-39.075 12.632-75.004 33.706-103.425 18.331 28.012 44.729 48.4 74.613 59.361-1.189-4.257-1.866-8.703-1.866-13.329v-59.735c-14.98-4.006-26.901-12.061-33.549-23.923 15.743-10.598 33.404-18.252 52.27-22.203v109.756c0.009 17.216 13.966 31.19 31.192 31.19zM537.006 598.935c39.4 7.894 73.603 31.846 96.451 65.289h-65.255c-17.218 0-31.198-13.966-31.198-31.192v-34.097zM618.096 476.063h-14.56v-436.639h14.549v436.639h0.011zM745.967 633.034c0 17.224-13.968 31.192-31.186 31.192h-44.895c-26.974-49.741-73.724-85.882-128.79-96.252 5.329-9.514 15.399-16.017 27.097-16.017h146.588c17.218 0 31.186 13.961 31.186 31.181v49.898z" />
<glyph unicode="&#xe903;" glyph-name="pizza" d="M852.026 605.574c-4.248 1.141-8.775 0.544-12.585-1.656l-60.559-34.964c-0.206-0.106-0.416-0.199-0.617-0.316-0.203-0.117-0.391-0.254-0.588-0.38l-271.204-156.58 99.511 371.376c2.371 8.848-2.879 17.941-11.729 20.314-113.805 30.502-232.679 14.845-334.718-44.067-210.636-121.612-283.064-391.918-161.452-602.558 58.912-102.038 154.033-175.026 267.84-205.521 38.003-10.183 76.565-15.221 114.882-15.221 76.433 0 151.87 20.046 219.835 59.288 210.638 121.612 283.068 391.92 161.454 602.56-2.198 3.81-5.82 6.59-10.071 7.727zM464.076 381.588c-1.74-6.482 0.597-13.368 5.92-17.45s12.578-4.56 18.39-1.205l291.766 168.451c81.585-158.701 24.816-355.823-131.368-445.997-52.97-30.581-110.851-45.11-168.022-45.106-116.612 0.009-230.196 60.482-292.573 168.524-45.031 77.998-56.994 168.863-33.684 255.857 23.31 86.996 79.104 159.707 157.1 204.738 73.009 42.154 157.664 55.327 239.661 37.581l-87.189-325.392zM684.057 24.016c-94.363-54.48-204.296-68.956-309.547-40.754-105.249 28.202-193.217 95.701-247.699 190.065-112.467 194.8-45.484 444.779 149.314 557.246 62.859 36.291 132.611 54.829 203.303 54.829 30.026 0 60.239-3.35 90.139-10.102l-9.712-36.245c-90.568 20.018-184.174 5.641-264.842-40.933-85.672-49.46-146.952-129.323-172.556-224.877s-12.463-195.36 36.999-281.029c68.52-118.681 193.259-185.105 321.356-185.103 62.784 0.002 126.382 15.962 184.552 49.544 172.027 99.321 234.236 316.759 143.529 491.32l32.481 18.753c101.068-192.529 32.669-433.030-157.317-542.715zM982.704 753.867c-58.925 102.061-154.068 175.066-267.9 205.567-4.248 1.141-8.777 0.544-12.585-1.656-3.81-2.198-6.588-5.823-7.729-10.071l-109.898-410.148c-1.736-6.482 0.602-13.368 5.924-17.452 2.961-2.271 6.521-3.428 10.099-3.428 2.85 0 5.714 0.734 8.291 2.222l367.729 212.308c3.81 2.198 6.588 5.823 7.729 10.071 1.134 4.25 0.54 8.777-1.661 12.587zM626.996 567.651l75.862 283.126c73.292-24.126 135.196-72.24 176.678-137.321l-252.54-145.804zM908.28 730.048c-45.942 72.715-114.993 126.324-196.826 152.803l10.701 39.933c92.939-28.903 171.275-89.011 223.248-171.304l-37.123-21.433zM372.84 359.605c0 28.655-23.313 51.968-51.968 51.968s-51.968-23.313-51.968-51.968 23.313-51.968 51.968-51.968 51.968 23.313 51.968 51.968zM302.075 359.605c0 10.365 8.432 18.797 18.797 18.797s18.797-8.432 18.797-18.797-8.432-18.797-18.797-18.797-18.797 8.432-18.797 18.797zM391.637 537.623c28.655 0 51.968 23.313 51.968 51.968s-23.313 51.968-51.968 51.968-51.968-23.313-51.968-51.968 23.313-51.968 51.968-51.968zM391.637 608.387c10.365 0 18.797-8.432 18.797-18.797s-8.432-18.797-18.797-18.797-18.797 8.432-18.797 18.797 8.432 18.797 18.797 18.797zM639.314 254.563c28.655 0 51.968 23.313 51.968 51.968s-23.313 51.968-51.968 51.968-51.968-23.313-51.968-51.968 23.313-51.968 51.968-51.968zM639.314 325.328c10.365 0 18.797-8.432 18.797-18.797s-8.432-18.797-18.797-18.797-18.797 8.432-18.797 18.797 8.432 18.797 18.797 18.797zM410.434 165.002c0-28.655 23.313-51.968 51.968-51.968s51.968 23.313 51.968 51.968-23.313 51.968-51.968 51.968-51.968-23.313-51.968-51.968zM481.199 165.002c0-10.365-8.432-18.797-18.797-18.797s-18.797 8.432-18.797 18.797 8.432 18.797 18.797 18.797 18.797-8.434 18.797-18.797zM612.777 148.416c14.022 0 25.431 11.409 25.431 25.431s-11.409 25.431-25.431 25.431-25.431-11.409-25.431-25.431 11.406-25.431 25.431-25.431zM506.63 272.254c14.022 0 25.431 11.409 25.431 25.431s-11.409 25.431-25.431 25.431-25.431-11.409-25.431-25.431 11.406-25.431 25.431-25.431zM718.924 712.323c-14.022 0-25.431-11.409-25.431-25.431s11.409-25.431 25.431-25.431 25.431 11.409 25.431 25.431c0 14.022-11.409 25.431-25.431 25.431zM312.026 199.278c-14.022 0-25.431-11.409-25.431-25.431s11.409-25.431 25.431-25.431 25.431 11.409 25.431 25.431-11.409 25.431-25.431 25.431zM375.051 474.598c0-14.022 11.409-25.431 25.431-25.431s25.431 11.409 25.431 25.431-11.409 25.431-25.431 25.431-25.431-11.409-25.431-25.431zM384.22 285.983l-35.382-17.691c-8.193-4.098-11.515-14.058-7.417-22.253 2.906-5.812 8.762-9.171 14.847-9.171 2.492 0 5.022 0.566 7.404 1.756l35.382 17.691c8.193 4.098 11.515 14.058 7.417 22.253-4.098 8.189-14.056 11.51-22.251 7.415zM748.318 387.568c2.906-5.812 8.762-9.171 14.847-9.171 2.492 0 5.022 0.566 7.404 1.756 8.193 4.098 11.515 14.058 7.417 22.251l-17.691 35.382c-4.096 8.191-14.056 11.513-22.251 7.417-8.193-4.098-11.515-14.058-7.417-22.253l17.691-35.382zM219.968 410.721c-8.686 2.895-18.080-1.798-20.98-10.489l-17.691-53.074c-2.897-8.691 1.8-18.085 10.491-20.98 1.74-0.579 3.507-0.856 5.248-0.856 6.944 0 13.414 4.394 15.732 11.344l17.691 53.074c2.895 8.689-1.8 18.083-10.491 20.98zM303.168 484.544c6.084 0 11.942 3.361 14.847 9.171 4.098 8.193 0.776 18.156-7.417 22.253l-35.382 17.691c-8.189 4.1-18.153 0.776-22.251-7.417s-0.776-18.156 7.417-22.253l35.382-17.691c2.379-1.19 4.909-1.754 7.404-1.754zM463.507 660.355v-35.382c0-9.162 7.424-16.586 16.586-16.586 9.16 0 16.586 7.424 16.586 16.586v35.382c0 9.162-7.426 16.586-16.586 16.586s-16.586-7.424-16.586-16.586zM757.188 795.921c-6.477 6.475-16.979 6.475-23.454 0-6.477-6.479-6.477-16.979 0-23.456l35.382-35.382c3.237-3.237 7.483-4.856 11.727-4.856s8.49 1.619 11.727 4.856c6.477 6.479 6.477 16.979 0 23.456l-35.382 35.382zM680.658 188.655c3.237-3.237 7.483-4.856 11.727-4.856s8.49 1.619 11.727 4.856l17.691 17.691c6.477 6.479 6.477 16.979 0 23.456-6.477 6.475-16.979 6.475-23.454 0l-17.691-17.691c-6.477-6.477-6.477-16.977 0-23.456zM639.314 378.402h17.691c9.16 0 16.586 7.424 16.586 16.586s-7.426 16.586-16.586 16.586h-17.691c-9.16 0-16.586-7.424-16.586-16.586s7.424-16.586 16.586-16.586z" />
<glyph unicode="&#xe904;" glyph-name="snacks" d="M82.033-40.63h270.535c-33.662 24.963-60.663 63.25-76.811 109.345-43.498 9.416-76.552 53.45-76.552 106.327 0 55.265 36.132 100.929 82.593 107.382 31.388 74.278 92.15 124.757 161.863 124.82l21.179 263.989h29.724v60.311h-236.36c-0.715 91.152 62.859 165.986 156.762 166.482 24.878 0.116 24.893 38.727 0 38.602-114.464-0.592-196.461-92.871-195.355-205.066h-219.612v-60.311h29.666l52.366-711.881zM408.499-31.142c11.339-3.77 23.122-5.999 35.294-5.999h370.665c55.714 0 104.306 41.986 130.064 103.929h-630.789c20.112-48.418 54.211-84.442 94.765-97.93zM433.725 283.304h503.979c-27.022 53.639-72.148 88.911-123.245 88.911h-370.665c-1.003 0-1.968-0.17-2.944-0.205-49.867-1.336-93.82-36.125-120.282-88.706h113.157zM306.364 248.237h-13.286c-1.72 0-3.348-0.467-5.034-0.637-7.080-0.75-13.773-2.908-19.915-6.524-19.955-11.707-33.84-36.759-33.84-66.024 0-27.406 12.261-51.017 30.18-63.556 5.939-4.161 12.444-7.107 19.439-8.494 3.011-0.601 6.046-1.148 9.186-1.148h672.093c3.131 0 6.178 0.547 9.157 1.148 7.008 1.367 13.505 4.315 19.448 8.476 17.945 12.538 30.207 36.15 30.207 63.574 0 29.282-13.901 54.345-33.885 66.041-6.131 3.598-12.862 5.755-19.915 6.506-1.673 0.17-3.285 0.637-5.012 0.637h-658.822zM330.6 203.36c21.822 8.969 46.303 9.345 74.234-2.191 6.959-2.883 14.039-7.5 21.333-12.092 17.785-11.16 36.876-22.151 58.937-7.464 11.142 7.417 24.456 17.568 38.229 19.841 27.241 4.511 51.933 4.127 75.83-11.723 41.367-27.433 77.383-34.861 120.496-5.892 18.329 12.29 40.623 28.076 64.119 26.877 28.183-1.467 53.012-12.083 77.222-26.195 29.74-17.327 46.414-17.050 70.49 0.949 3.678 2.756 7.5 5.836 11.589 9.416 6.3 5.496 13.729 4.779 19.314 1.246 1.146-0.717 2.289-1.398 3.247-2.327 4.896-4.844 6.508-12.138 1.925-18.421-0.69-0.94-1.139-1.95-2.166-2.845-0.511-0.438-0.985-0.804-1.523-1.26-11.279-9.747-21.983-17.499-32.65-23.12-23.728-12.494-47.355-13.523-77.564 4.047-37.358 21.776-70.231 36.534-109.613 10.079-20.737-13.916-43.274-28.956-69.059-30.682-32.034-2.137-55.366 6.731-81.787 24.264-47.703 31.603-75.638 2.624-119.283-14.553-21.445-8.422-35.886 2.417-50.546 13.445-7.026 5.289-14.113 10.633-22.026 13.916-32.427 13.425-55.134 10.765-75.857-4.969-8.578-6.506-16.867-15.035-25.298-25.919-1.199-1.539-2.542-2.468-3.879-3.337-0.771-0.503-1.525-0.94-2.314-1.255-5.816-2.191-11.958 0.753-15.837 5.997-3.904 5.255-5.206 12.549-1.155 19.209 0.353 0.583 0.438 1.164 0.855 1.744 4.125 5.307 8.382 10.309 12.748 14.912 1.302 1.358 2.671 2.417 3.978 3.723 11.163 10.839 23.1 19.272 36.009 24.579z" />
<glyph unicode="&#xe905;" glyph-name="wifi" d="M166.481 479.339c-21.346-21.346-21.346-56.087 0-77.642 21.346-21.346 56.087-21.346 77.642 0 147.751 147.751 388.212 147.751 535.962 0 10.673-10.673 24.695-16.114 38.717-16.114s28.043 5.441 38.717 16.114c21.346 21.346 21.346 56.087 0 77.642-190.443 190.653-500.594 190.653-691.038 0zM314.65 331.17c-21.346-21.346-21.346-56.087 0-77.642 21.346-21.346 56.087-21.346 77.642 0 65.923 66.132 173.492 66.132 239.415 0 10.673-10.673 24.695-16.114 38.717-16.114s28.043 5.441 38.717 16.114c21.346 21.346 21.346 56.087 0 77.433-108.616 109.034-285.665 109.034-394.49 0.209zM585.038 134.030c0-40.338-32.7-73.038-73.038-73.038s-73.038 32.7-73.038 73.038c0 40.338 32.7 73.038 73.038 73.038s73.038-32.7 73.038-73.038zM1007.99 630.020c-273.527 273.318-718.453 273.318-991.98 0-21.346-21.346-21.346-56.087 0-77.642 21.346-21.346 56.087-21.346 77.642 0 230.625 230.834 606.071 230.834 836.905 0 10.673-10.673 24.695-16.114 38.717-16.114s28.043 5.441 38.717 16.114c21.346 21.346 21.346 56.087 0 77.642z" />
</font></defs></svg>